[
 {
  "allow_on_submit": 0, 
  "bold": 0, 
  "collapsible": 0, 
  "collapsible_depends_on": null, 
  "default": null, 
  "depends_on": null, 
  "description": null, 
  "docstatus": 0, 
  "doctype": "Custom Field", 
  "dt": "User", 
  "fieldname": "geography", 
  "fieldtype": "Section Break", 
  "hidden": 0, 
  "ignore_user_permissions": 0, 
  "ignore_xss_filter": 0, 
  "in_global_search": 0, 
  "in_list_view": 0, 
  "in_standard_filter": 0, 
  "insert_after": "enabled", 
  "label": "", 
  "modified": "2016-10-17 23:46:26.352041", 
  "name": "User-geography", 
  "no_copy": 0, 
  "options": null, 
  "permlevel": 0, 
  "precision": "", 
  "print_hide": 0, 
  "print_hide_if_no_value": 0, 
  "print_width": null, 
  "read_only": 0, 
  "report_hide": 0, 
  "reqd": 0, 
  "search_index": 0, 
  "unique": 0, 
  "width": null
 }, 
 {
  "allow_on_submit": 0, 
  "bold": 0, 
  "collapsible": 0, 
  "collapsible_depends_on": null, 
  "default": null, 
  "depends_on": null, 
  "description": null, 
  "docstatus": 0, 
  "doctype": "Custom Field", 
  "dt": "User", 
  "fieldname": "territory", 
  "fieldtype": "Link", 
  "hidden": 0, 
  "ignore_user_permissions": 0, 
  "ignore_xss_filter": 0, 
  "in_global_search": 0, 
  "in_list_view": 0, 
  "in_standard_filter": 0, 
  "insert_after": "geography", 
  "label": "Territory", 
  "modified": "2017-05-03 13:09:42.818586",
  "name": "User-territory", 
  "no_copy": 0, 
  "options": "Territory", 
  "permlevel": 1, 
  "precision": "", 
  "print_hide": 0, 
  "print_hide_if_no_value": 0, 
  "print_width": null, 
  "read_only": 0, 
  "report_hide": 0, 
  "reqd": 1,
  "search_index": 0, 
  "unique": 0, 
  "width": null
 }
]