{
 "add_total_row": 1, 
 "apply_user_permissions": 1, 
 "creation": "2016-11-15 10:25:20.973142", 
 "disabled": 0, 
 "docstatus": 0, 
 "doctype": "Report", 
 "idx": 0, 
 "is_standard": "Yes", 
 "modified": "2016-11-15 10:25:20.973142", 
 "modified_by": "Administrator", 
 "module": "Pol Contacts", 
 "name": "Cash Receivables", 
 "owner": "Administrator", 
 "ref_doctype": "Receivable", 
 "report_name": "Cash Receivables", 
 "report_type": "Script Report"
}