{
 "add_total_row": 0, 
 "apply_user_permissions": 1, 
 "creation": "2017-06-03 17:34:05.645753", 
 "disabled": 0, 
 "docstatus": 0, 
 "doctype": "Report", 
 "idx": 0, 
 "is_standard": "Yes", 
 "modified": "2017-06-03 17:34:05.645753", 
 "modified_by": "Administrator", 
 "module": "Pol Contacts", 
 "name": "Unpaid Receivables", 
 "owner": "Administrator", 
 "ref_doctype": "Receivable", 
 "report_name": "Unpaid Receivables", 
 "report_type": "Script Report", 
 "roles": [
  {
   "role": "Administrator"
  }, 
  {
   "role": "SIGEAS Economic"
  }
 ]
}
